
0	0.000014 0.000142 0.000098 0.000248 0.000110 0.000018
100	0.000056 0.000514 0.000356 0.000636 0.000375 0.000052
200	0.000101 0.001162 0.000671 0.001079 0.000832 0.000100
300	0.000170 0.001641 0.000990 0.001494 0.001154 0.000168
400	0.000250 0.002007 0.001345 0.001960 0.001445 0.000249
500	0.000345 0.002431 0.001709 0.002445 0.001727 0.000343
600	0.000465 0.002915 0.002114 0.002999 0.002050 0.000462
700	0.000596 0.003430 0.002570 0.003607 0.002390 0.000594
800	0.000749 0.003958 0.003052 0.004317 0.002754 0.000747
900	0.000917 0.004501 0.003549 0.005067 0.003122 0.000907
1000	0.001110 0.005051 0.004112 0.005858 0.003548 0.001106
1100	0.001390 0.005652 0.004707 0.006692 0.003987 0.001372
1200	0.001682 0.006241 0.005351 0.007623 0.004453 0.001660
1300	0.002002 0.006879 0.005990 0.008562 0.004899 0.001948
1400	0.002328 0.007655 0.006723 0.009596 0.005376 0.002269
1500	0.002742 0.008487 0.007586 0.010868 0.005936 0.002648
1600	0.003110 0.009221 0.008333 0.011974 0.006404 0.002987
1700	0.003492 0.009968 0.009144 0.013202 0.006925 0.003356
1800	0.003876 0.010730 0.009933 0.014422 0.007433 0.003734
1900	0.004291 0.011555 0.010750 0.015725 0.007965 0.004136
2000	0.004717 0.012369 0.011606 0.017102 0.008457 0.004560